<?xml version="1.0" standalone="no"?>
<!DOCTYPE svg PUBLIC "-//W3C//DTD SVG 20010904//EN"
 "http://www.w3.org/TR/2001/REC-SVG-20010904/DTD/svg10.dtd">
<svg version="1.0" xmlns="http://www.w3.org/2000/svg"
 width="192.000000pt" height="192.000000pt" viewBox="0 0 192.000000 192.000000"
 preserveAspectRatio="xMidYMid meet">
<metadata>
Created by potrace 1.11, written by Peter Selinger 2001-2013
</metadata>
<g transform="translate(0.000000,192.000000) scale(0.100000,-0.100000)"
fill="#000000" stroke="none">
<path d="M490 960 l0 -210 35 0 35 0 0 127 c0 74 4 123 9 117 5 -5 36 -61 69
-124 59 -111 62 -115 96 -118 l36 -3 0 211 0 211 -37 -3 -38 -3 -5 -122 -5
-121 -65 124 c-63 120 -66 124 -97 124 l-33 0 0 -210z"/>
<path d="M830 960 l0 -210 35 0 35 0 0 90 0 90 70 0 70 0 0 -90 0 -90 35 0 35
0 0 210 0 210 -35 0 -35 0 0 -85 0 -85 -70 0 -70 0 0 85 0 85 -35 0 -35 0 0
-210z"/>
<path d="M1170 960 l0 -210 68 0 c85 0 147 29 174 80 26 49 26 211 0 260 -27
51 -89 80 -174 80 l-68 0 0 -210z m161 121 c22 -18 24 -26 24 -121 0 -95 -2
-103 -24 -121 -13 -10 -38 -19 -57 -19 l-34 0 0 140 0 140 34 0 c19 0 44 -9
57 -19z"/>
</g>
</svg>
